{
  "url": "https://localhost/api/v1/applications/CdsdLKL3mSllySxyO2UjSRRH4EqFmUFbfSXTZWW4/",
  "name": "WithoutPubnubApp",
  "client_id": "CdsdLKL3mSllySxyO2UjSRRH4EqFmUFbfSXTZWW4",
  "media_url": "https://localhost/api/v1/media/?client_id=CdsdLKL3mSllySxyO2UjSRRH4EqFmUFbfSXTZWW4",
  "pubnub_subscribe_key": null,
  "pubnub_publish_key": "pub-key",
  "pubnub_origin": "localhost",
  "pubnub_heartbeat_interval": 279,
  "pubnub_presence_timeout": 279,
  "sendbird_app_id": null,
  "sendbird_api_endpoint": null,
  "sessions_url": "https://localhost/api/v1/_forbidden/",
  "profile_url": "https://localhost/api/v1/applications/CdsdLKL3mSllySxyO2UjSRRH4EqFmUFbfSXTZWW4/profile/",
  "profile_detail_url_template": "https://localhost/api/v1/profiles/{profile_id}/",
  "sticker_packs_url": "https://localhost/api/v1/sticker-packs/?client_id=CdsdLKL3mSllySxyO2UjSRRH4EqFmUFbfSXTZWW4",
  "reaction_packs_url": "https://localhost/api/v1/reaction-packs/?client_id=CdsdLKL3mSllySxyO2UjSRRH4EqFmUFbfSXTZWW4",
  "image_url": "https://localhost/assets/bf0e7b25-334e-4dc8-aed8-ccefdada4b27.png",
  "programs_url": "https://localhost/api/v1/programs/?client_id=CdsdLKL3mSllySxyO2UjSRRH4EqFmUFbfSXTZWW4",
  "program_detail_url_template": "https://localhost/api/v1/programs/{program_id}/program.json",
  "program_custom_id_url_template": "https://localhost/api/v1/program-by-custom-id/CdsdLKL3mSllySxyO2UjSRRH4EqFmUFbfSXTZWW4/{custom_id}/",
  "sticker_pack_detail_url_template": "https://localhost/api/v1/sticker-packs/{sticker_pack_id}/",
  "reaction_pack_detail_url_template": "https://localhost/api/v1/reaction-packs/{reaction_pack_id}/",
  "leaderboard_detail_url_template": "https://localhost/api/v1/leaderboards/{leaderboard_id}/",
  "chat_rooms_url": "https://localhost/api/v1/chat-rooms/?client_id=CdsdLKL3mSllySxyO2UjSRRH4EqFmUFbfSXTZWW4",
  "chat_room_detail_url_template": "https://localhost/api/v1/chat-rooms/{chat_room_id}/",
  "create_chat_room_url": "https://localhost/api/v1/chat-rooms/",
  "chat_rooms_invitations_url": "https://localhost/api/v1/chat-room-invitations/?client_id=CdsdLKL3mSllySxyO2UjSRRH4EqFmUFbfSXTZWW4",
  "chat_room_invitation_detail_url_template": "https://localhost/api/v1/chat-room-invitations/{chat_room_invitation_id}/",
  "create_chat_room_invitation_url": "https://localhost/api/v1/chat-room-invitations/",
  "reward_items_url": "https://localhost/api/v1/reward-items/?client_id=CdsdLKL3mSllySxyO2UjSRRH4EqFmUFbfSXTZWW4",
  "mixpanel_token": "5c82369365be76b28b3716f260fbd2f5",
  "organization_id": "99fe7185-e9e1-4070-a2cf-8a3f3dd442f9",
  "organization_name": "DIG",
  "analytics_properties": {
    "Internal App ID": "CdsdLKL3mSllySxyO2UjSRRH4EqFmUFbfSXTZWW4",
    "Internal App Name": "WithoutPubnubApp",
    "Organization ID": "99fe7185-e9e1-4070-a2cf-8a3f3dd442f9",
    "Organization Name": "DIG"
  },
  "agora_app_id": "de90edea7b9a4281b931ddd2f14036fc",
  "agora_token_url_template": "https://localhost/api/v1/agora-token/{chat_room_id}/",
  "widget_detail_url_template": "https://localhost/api/v1/widgets/{kind}/{id}/",
  "badges_url": "https://localhost/api/v1/applications/CdsdLKL3mSllySxyO2UjSRRH4EqFmUFbfSXTZWW4/badges/",
  "reward_transactions_url": "https://localhost/api/v1/reward-transactions/",
  "profile_search_url": "https://localhost/api/v1/profiles/?client_id=CdsdLKL3mSllySxyO2UjSRRH4EqFmUFbfSXTZWW4&nickname={search_name}",
  "profile_chat_room_received_invitations_url_template": "https://localhost/api/v1/chat-room-invitations/?client_id=CdsdLKL3mSllySxyO2UjSRRH4EqFmUFbfSXTZWW4&invited_profile_id={profile_id}&status={status}",
  "profile_chat_room_sent_invitations_url_template": "https://localhost/api/v1/chat-room-invitations/?client_id=CdsdLKL3mSllySxyO2UjSRRH4EqFmUFbfSXTZWW4&invited_by_id={invited_by_id}&status={status}",
  "pinned_messages_url": "https://localhost/api/v1/pinned-messages/",
  "registered_links_url": "https://localhost/api/v1/registered-links/",
  "redemption_keys_url": "https://localhost/api/v1/redemption-keys/?client_id=CdsdLKL3mSllySxyO2UjSRRH4EqFmUFbfSXTZWW4",
  "redemption_key_detail_by_code_url_template": "https://localhost/api/v1/redemption-keys-by-code/CdsdLKL3mSllySxyO2UjSRRH4EqFmUFbfSXTZWW4/{code}/",
  "redemption_key_detail_url_template": "https://localhost/api/v1/redemption-keys/{redemption_key_id}/",
  "sponsors_url": "https://localhost/api/v1/sponsors/?client_id=CdsdLKL3mSllySxyO2UjSRRH4EqFmUFbfSXTZWW4",
  "quests_url": "https://localhost/api/v1/quests/?client_id=CdsdLKL3mSllySxyO2UjSRRH4EqFmUFbfSXTZWW4",
  "user_quests_url": "https://localhost/api/v1/user-quests/",
  "quest_detail_url_template": "https://localhost/api/v1/quests/{quest_id}/",
  "user_quests_url_template": "https://localhost/api/v1/user-quests/?client_id=CdsdLKL3mSllySxyO2UjSRRH4EqFmUFbfSXTZWW4&profile_id={profile_id}",
  "user_quest_tasks_url_template": "https://localhost/api/v1/user-quest-tasks/{user_task_id}/",
  "user_quest_detail_url_template": "https://localhost/api/v1/user-quests/{user_quest_id}/",
  "user_quest_task_progress_url": "https://localhost/api/v1/user-quest-task-progress/",
  "quest_tasks_url": "https://localhost/api/v1/quest-tasks/?client_id=CdsdLKL3mSllySxyO2UjSRRH4EqFmUFbfSXTZWW4",
  "quest_rewards_url": "https://localhost/api/v1/quest-rewards/",
  "user_quest_rewards_url": "https://localhost/api/v1/user-quest-rewards/",
  "video_room_url": "https://localhost/api/v1/video-rooms/",
  "video_room_detail_url_template": "https://localhost/api/v1/video-rooms/{video_room_id}/",
  "reaction_space_detail_url_template": "https://localhost/api/v1/reaction-spaces/{reaction_space_id}/",
  "reaction_spaces_url": "https://localhost/api/v1/reaction-spaces/",
  "reward_actions_url": "https://localhost/api/v1/reward-actions/",
  "invoked_actions_url": "https://localhost/api/v1/invoked-actions/",
  "profile_leaderboards_url_template": "https://localhost/api/v1/profiles/{profile_id}/leaderboards/",
  "profile_leaderboard_views_url_template": "https://localhost/api/v1/profiles/{profile_id}/leaderboard-views/",
  "chat_room_events_url": "https://localhost/api/v1/chatroom-events/",
  "api_polling_interval": 10,
  "badge_profiles_url": "https://localhost/api/v1/badge-profiles/",
  "comment_boards_url": "https://localhost/api/v1/comment-boards/",
  "comment_board_detail_url_template": "https://localhost/api/v1/comment-boards/{comment_board_id}/",
  "profile_relationship_types_url": "https://localhost/api/v1/profile-relationship-types/?client_id=pnODbVXg0UI80s0l2aH5Y7FOuGbftoAdSNqpdvo6",
  "profile_relationships_url": "https://localhost/api/v1/profile-relationships/?client_id=pnODbVXg0UI80s0l2aH5Y7FOuGbftoAdSNqpdvo6",
  "profile_relationship_detail_url_template": "https://localhost/api/v1/profile-relationships/{profile_relationship_id}/",
  "comment_board_ban_url": "https://localhost/api/v1/comment-board-bans/",
  "comment_board_ban_detail_url_template": "https://localhost/api/v1/comment-board-bans/{comment_board_ban_id}/",
  "comment_report_url": "https://localhost/api/v1/comment-reports/",
  "comment_report_detail_url_template": "https://localhost/api/v1/comment-reports/{comment_report_id}/",
  "saved_contract_addresses_url": "https://localhost/api/v1/saved-contract-addresses/?client_id=32JZTq5Owh1ozORSJF9Mdxi4GJSRLNHgJWVtK0gC"
}