{
  "badge_progress_url": "https://localhost/api/v1/profiles/edab33ee-2880-4dee-921d-7f4d3d7a4504/badge-progress/",
  "block_profile_url": "https://localhost/api/v1/profile-blocks/",
  "blocked_profiles_template_url": "https://localhost/api/v1/profile-blocks/?blocked_profile_id={blocked_profile_id}",
  "custom_data": null,
  "created_at": "2022-11-29T10:11:01.000Z",
  "nickname": "Dark Legend",
  "badges": [],
  "reported_count": 0,
  "id": "edab33ee-2880-4dee-921d-7f4d3d7a4504",
  "chat_room_memberships_url": "https://localhost/api/v1/profiles/edab33ee-2880-4dee-921d-7f4d3d7a4504/chat-room-memberships/",
  "leaderboards_url": "https://localhost/api/v1/profiles/edab33ee-2880-4dee-921d-7f4d3d7a4504/leaderboards/",
  "leaderboard_views_url": "https://localhost/api/v1/profiles/edab33ee-2880-4dee-921d-7f4d3d7a4504/leaderboard-views/",
  "reward_item_balances_url": "https://localhost/api/v1/profiles/edab33ee-2880-4dee-921d-7f4d3d7a4504/reward-item-balances/",
  "reward_item_credit_url": "https://localhost/api/v1/profiles/edab33ee-2880-4dee-921d-7f4d3d7a4504/reward-item-credits/",
  "reward_item_debit_url": "https://localhost/api/v1/profiles/edab33ee-2880-4dee-921d-7f4d3d7a4504/reward-item-debits/",
  "blocked_profile_ids_url": "https://localhost/api/v1/blocked-profile-ids/",
  "reward_item_transfer_url": "https://localhost/api/v1/profiles/edab33ee-2880-4dee-921d-7f4d3d7a4504/reward-item-transfers/",
  "url": "https://localhost/api/v1/profiles/edab33ee-2880-4dee-921d-7f4d3d7a4504/",
  "chat_room_invitations_url_template": "https://localhost/api/v1/chat-room-invitations/?client_id={client_id}&invited_profile_id={profile_id}",
  "subscribe_channel": "profile.edab33ee-2880-4dee-921d-7f4d3d7a4504",
  "client_id": "CdsdLKL3mSllySxyO2UjSRRH4EqFmUFbfSXTZWW4",
  "badges_url": "https://localhost/api/v1/profiles/edab33ee-2880-4dee-921d-7f4d3d7a4504/badges/",
  "points": 0,
  "chat_rooms": [
    {
      "id": "fba60fb2-bcf2-4d4b-b611-9d95616b2e2e",
      "url": "https://localhost/api/v1/chat-rooms/fba60fb2-bcf2-4d4b-b611-9d95616b2e2e/",
      "client_id": "8PqSNDgIVHnXuJuGte1HdvOjOqhCFE1ZCR3qhqaS",
      "title": "Cool Chat 3",
      "created_at": "2019-12-04T19:44:59.489713Z",
      "content_filter": "filtered",
      "visibility": "everyone",
      "channels": {
        "chat": {
          "sendbird": null,
          "pubnub": "chatroom.filtered.fba60fb2-bcf2-4d4b-b611-9d95616b2e2e"
        },
        "reactions": {
          "pubnub": "chatroom.reactions.fba60fb2-bcf2-4d4b-b611-9d95616b2e2e"
        },
        "control": {
          "pubnub": "chatroom.control.fba60fb2-bcf2-4d4b-b611-9d95616b2e2e"
        }
      },
      "report_message_url": "https://localhost/api/v1/chat-rooms/fba60fb2-bcf2-4d4b-b611-9d95616b2e2e/report-chat-message/",
      "reported_messages_url": "https://localhost/api/v1/reported-chat-room-messages/?chat_room_id=fba60fb2-bcf2-4d4b-b611-9d95616b2e2e&status=pending",
      "delete_message_url": "https://localhost/api/v1/chat-rooms/fba60fb2-bcf2-4d4b-b611-9d95616b2e2e/delete-chat-message/",
      "upload_url": "https://localhost/api/v1/chat-rooms/fba60fb2-bcf2-4d4b-b611-9d95616b2e2e/upload/",
      "memberships_url": "https://localhost/api/v1/chat-rooms/fba60fb2-bcf2-4d4b-b611-9d95616b2e2e/memberships/",
      "muted_status_url_template": "https://localhost/api/v1/chat-rooms/fba60fb2-bcf2-4d4b-b611-9d95616b2e2e/muted-status/{profile_id}/",
      "custom_messages_url": "https://localhost/api/v1/chat-rooms/fba60fb2-bcf2-4d4b-b611-9d95616b2e2e/custom-messages/",
      "sticker_packs_url": "https://localhost/sticker-packs/fba60fb2-bcf2-4d4b-b611-9d95616b2e2e/sticker_packs.json",
      "reaction_packs_url": "https://localhost/reaction-packs/fba60fb2-bcf2-4d4b-b611-9d95616b2e2e/reaction_packs.json",
      "custom_data": null,
      "sponsors_url": "https://localhost/sponsors/fba60fb2-bcf2-4d4b-b611-9d95616b2e2e/sponsors.json",
      "chatroom_messages_url": "https://localhost/api/v1/chatroom-messages/",
      "chatroom_messages_count_url": "https://localhost/api/v1/chat-rooms/fba60fb2-bcf2-4d4b-b611-9d95616b2e2e/chatroom_messages_count/",
      "pubnub_messages_reaction_url_template": "https://localhost/api/v1/chat-rooms/fba60fb2-bcf2-4d4b-b611-9d95616b2e2e/pubnub-messages/{message_timetoken}/reactions/",
      "pubnub_messages_remove_reaction_url_template": "https://localhost/api/v1/chat-rooms/fba60fb2-bcf2-4d4b-b611-9d95616b2e2e/pubnub-messages/{message_timetoken}/reactions/{action_timetoken}/",
      "token_gates": [],
      "chatroom_token_gate_access_url_template": "",
      "chatroom_access_rule_url": "https://localhost/api/v1/chat-room-access-rules/",
      "reported_chat_messages_url": "https://localhost/api/v1/reported-chat-messages/",
      "reaction_space_id": "42393447-1d46-4115-a0ac-4d151d747b5a"
    },
    {
      "id": "a8410fc1-c00d-4886-b70a-604cf581b1c3",
      "url": "https://localhost/api/v1/chat-rooms/a8410fc1-c00d-4886-b70a-604cf581b1c3/",
      "client_id": "8PqSNDgIVHnXuJuGte1HdvOjOqhCFE1ZCR3qhqaS",
      "title": "Default Prod Custom",
      "created_at": "2019-12-09T10:47:20.607832Z",
      "content_filter": "filtered",
      "visibility": "everyone",
      "channels": {
        "chat": {
          "sendbird": null,
          "pubnub": "chatroom.filtered.a8410fc1-c00d-4886-b70a-604cf581b1c3"
        },
        "reactions": {
          "pubnub": "chatroom.reactions.a8410fc1-c00d-4886-b70a-604cf581b1c3"
        },
        "control": {
          "pubnub": "chatroom.control.a8410fc1-c00d-4886-b70a-604cf581b1c3"
        }
      },
      "report_message_url": "https://localhost/api/v1/chat-rooms/a8410fc1-c00d-4886-b70a-604cf581b1c3/report-chat-message/",
      "reported_messages_url": "https://localhost/api/v1/reported-chat-room-messages/?chat_room_id=a8410fc1-c00d-4886-b70a-604cf581b1c3&status=pending",
      "delete_message_url": "https://localhost/api/v1/chat-rooms/a8410fc1-c00d-4886-b70a-604cf581b1c3/delete-chat-message/",
      "upload_url": "https://localhost/api/v1/chat-rooms/a8410fc1-c00d-4886-b70a-604cf581b1c3/upload/",
      "memberships_url": "https://localhost/api/v1/chat-rooms/a8410fc1-c00d-4886-b70a-604cf581b1c3/memberships/",
      "muted_status_url_template": "https://localhost/api/v1/chat-rooms/a8410fc1-c00d-4886-b70a-604cf581b1c3/muted-status/{profile_id}/",
      "custom_messages_url": "https://localhost/api/v1/chat-rooms/a8410fc1-c00d-4886-b70a-604cf581b1c3/custom-messages/",
      "sticker_packs_url": "https://localhost/sticker-packs/a8410fc1-c00d-4886-b70a-604cf581b1c3/sticker_packs.json",
      "reaction_packs_url": "https://localhost/reaction-packs/a8410fc1-c00d-4886-b70a-604cf581b1c3/reaction_packs.json",
      "custom_data": null,
      "sponsors_url": "https://localhost/sponsors/a8410fc1-c00d-4886-b70a-604cf581b1c3/sponsors.json",
      "chatroom_messages_url": "https://localhost/api/v1/chatroom-messages/",
      "chatroom_messages_count_url": "https://localhost/api/v1/chat-rooms/a8410fc1-c00d-4886-b70a-604cf581b1c3/chatroom_messages_count/",
      "pubnub_messages_reaction_url_template": "https://localhost/api/v1/chat-rooms/a8410fc1-c00d-4886-b70a-604cf581b1c3/pubnub-messages/{message_timetoken}/reactions/",
      "pubnub_messages_remove_reaction_url_template": "https://localhost/api/v1/chat-rooms/a8410fc1-c00d-4886-b70a-604cf581b1c3/pubnub-messages/{message_timetoken}/reactions/{action_timetoken}/",
      "token_gates": [],
      "chatroom_token_gate_access_url_template": "",
      "chatroom_access_rule_url": "https://localhost/api/v1/chat-room-access-rules/",
      "reported_chat_messages_url": "https://localhost/api/v1/reported-chat-messages/",
      "reaction_space_id": "7ca7a5c9-5ced-4900-9dc7-c2816230864b"
    }
  ],
  "default_chat_room": {
    "id": "fba60fb2-bcf2-4d4b-b611-9d95616b2e2e",
    "url": "https://localhost/api/v1/chat-rooms/fba60fb2-bcf2-4d4b-b611-9d95616b2e2e/",
    "client_id": "8PqSNDgIVHnXuJuGte1HdvOjOqhCFE1ZCR3qhqaS",
    "title": "Cool Chat 3",
    "created_at": "2019-12-04T19:44:59.489713Z",
    "content_filter": "filtered",
    "visibility": "everyone",
    "channels": {
      "chat": {
        "sendbird": null,
        "pubnub": "chatroom.filtered.fba60fb2-bcf2-4d4b-b611-9d95616b2e2e"
      },
      "reactions": {
        "pubnub": "chatroom.reactions.fba60fb2-bcf2-4d4b-b611-9d95616b2e2e"
      },
      "control": {
        "pubnub": "chatroom.control.fba60fb2-bcf2-4d4b-b611-9d95616b2e2e"
      }
    },
    "report_message_url": "https://localhost/api/v1/chat-rooms/fba60fb2-bcf2-4d4b-b611-9d95616b2e2e/report-chat-message/",
    "reported_messages_url": "https://localhost/api/v1/reported-chat-room-messages/?chat_room_id=fba60fb2-bcf2-4d4b-b611-9d95616b2e2e&status=pending",
    "delete_message_url": "https://localhost/api/v1/chat-rooms/fba60fb2-bcf2-4d4b-b611-9d95616b2e2e/delete-chat-message/",
    "upload_url": "https://localhost/api/v1/chat-rooms/fba60fb2-bcf2-4d4b-b611-9d95616b2e2e/upload/",
    "memberships_url": "https://localhost/api/v1/chat-rooms/fba60fb2-bcf2-4d4b-b611-9d95616b2e2e/memberships/",
    "muted_status_url_template": "https://localhost/api/v1/chat-rooms/fba60fb2-bcf2-4d4b-b611-9d95616b2e2e/muted-status/{profile_id}/",
    "custom_messages_url": "https://localhost/api/v1/chat-rooms/fba60fb2-bcf2-4d4b-b611-9d95616b2e2e/custom-messages/",
    "sticker_packs_url": "https://localhost/sticker-packs/fba60fb2-bcf2-4d4b-b611-9d95616b2e2e/sticker_packs.json",
    "reaction_packs_url": "https://localhost/reaction-packs/fba60fb2-bcf2-4d4b-b611-9d95616b2e2e/reaction_packs.json",
    "custom_data": null,
    "sponsors_url": "https://localhost/sponsors/fba60fb2-bcf2-4d4b-b611-9d95616b2e2e/sponsors.json",
    "chatroom_messages_url": "https://localhost/api/v1/chatroom-messages/",
    "chatroom_messages_count_url": "https://localhost/api/v1/chat-rooms/fba60fb2-bcf2-4d4b-b611-9d95616b2e2e/chatroom_messages_count/",
    "pubnub_messages_reaction_url_template": "https://localhost/api/v1/chat-rooms/fba60fb2-bcf2-4d4b-b611-9d95616b2e2e/pubnub-messages/{message_timetoken}/reactions/",
    "pubnub_messages_remove_reaction_url_template": "https://localhost/api/v1/chat-rooms/fba60fb2-bcf2-4d4b-b611-9d95616b2e2e/pubnub-messages/{message_timetoken}/reactions/{action_timetoken}/",
    "token_gates": [],
    "chatroom_token_gate_access_url_template": "",
    "chatroom_access_rule_url": "https://localhost/api/v1/chat-room-access-rules/",
    "reported_chat_messages_url": "https://localhost/api/v1/reported-chat-messages/",
    "reaction_space_id": "42393447-1d46-4115-a0ac-4d151d747b5a"
  },
  "leaderboards": [
    {
      "id": "f1fbb4dd-b8f4-4b85-b155-d207d7da0db5",
      "url": "https://localhost/api/v1/leaderboards/f1fbb4dd-b8f4-4b85-b155-d207d7da0db5/",
      "client_id": "8PqSNDgIVHnXuJuGte1HdvOjOqhCFE1ZCR3qhqaS",
      "name": "tarbooza leaderboard",
      "reward_item": {
        "id": "053091d9-84cd-43c7-8c21-ddea5814ba8b",
        "url": "https://localhost/api/v1/reward-items/053091d9-84cd-43c7-8c21-ddea5814ba8b/",
        "client_id": "8PqSNDgIVHnXuJuGte1HdvOjOqhCFE1ZCR3qhqaS",
        "name": "Tarbooza",
        "images": [],
        "attributes": [],
        "prizeout_conversion_rate": null,
        "reward_item_points": null,
        "prizeout_points": null,
        "prizeout_status": null
      },
      "reward_item_id": "053091d9-84cd-43c7-8c21-ddea5814ba8b",
      "is_locked": false,
      "entries_url": "https://localhost/api/v1/leaderboards/f1fbb4dd-b8f4-4b85-b155-d207d7da0db5/entries/",
      "entry_detail_url_template": "https://localhost/api/v1/leaderboards/f1fbb4dd-b8f4-4b85-b155-d207d7da0db5/entries/{profile_id}/"
    },
    {
      "id": "d366b076-6742-4c14-9f37-7f52b0bbf9dd",
      "url": "https://localhost/api/v1/leaderboards/d366b076-6742-4c14-9f37-7f52b0bbf9dd/",
      "client_id": "8PqSNDgIVHnXuJuGte1HdvOjOqhCFE1ZCR3qhqaS",
      "name": "ABCCD",
      "reward_item": {
        "id": "053091d9-84cd-43c7-8c21-ddea5814ba8b",
        "url": "https://localhost/api/v1/reward-items/053091d9-84cd-43c7-8c21-ddea5814ba8b/",
        "client_id": "8PqSNDgIVHnXuJuGte1HdvOjOqhCFE1ZCR3qhqaS",
        "name": "Tarbooza",
        "images": [],
        "attributes": [],
        "prizeout_conversion_rate": null,
        "reward_item_points": null,
        "prizeout_points": null,
        "prizeout_status": null
      },
      "reward_item_id": "053091d9-84cd-43c7-8c21-ddea5814ba8b",
      "is_locked": false,
      "entries_url": "https://localhost/api/v1/leaderboards/d366b076-6742-4c14-9f37-7f52b0bbf9dd/entries/",
      "entry_detail_url_template": "https://localhost/api/v1/leaderboards/d366b076-6742-4c14-9f37-7f52b0bbf9dd/entries/{profile_id}/"
    }
  ],
  "sponsors": [
    {
      "id": "5945cfb6-8511-49e4-8aed-fb6fbb77f7cf",
      "url": "https://localhost/api/v1/sponsors/5945cfb6-8511-49e4-8aed-fb6fbb77f7cf/",
      "clickthrough_url": null,
      "logo_url": "https://localhost/assets/0a1916cb-c42a-48a4-90f1-1995b3d5433d.gif",
      "client_id": "8PqSNDgIVHnXuJuGte1HdvOjOqhCFE1ZCR3qhqaS",
      "name": "15,00,000",
      "brand_color": null
    },
    {
      "id": "502bb179-98bc-49df-bd21-a6149bc6ccf5",
      "url": "https://localhost/api/v1/sponsors/502bb179-98bc-49df-bd21-a6149bc6ccf5/",
      "clickthrough_url": null,
      "logo_url": "https://localhost/assets/0444e366-d3a8-40c8-89d0-74ba75c37db2.jpg",
      "client_id": "8PqSNDgIVHnXuJuGte1HdvOjOqhCFE1ZCR3qhqaS",
      "name": "hello",
      "brand_color": "#129dbf"
    }
  ],
  "sponsors_url": "https://localhost/sponsors/09d93835-ee52-4757-976c-ea09d6a5798c/sponsors.json",
  "reward_items": [
    {
      "id": "5e1016ef-9cf8-450f-9ad6-5e3996f1cbb0",
      "url": "https://localhost/api/v1/reward-items/5e1016ef-9cf8-450f-9ad6-5e3996f1cbb0/",
      "client_id": "8PqSNDgIVHnXuJuGte1HdvOjOqhCFE1ZCR3qhqaS",
      "name": "LiveLike Points",
      "images": [],
      "attributes": [],
      "prizeout_conversion_rate": null,
      "reward_item_points": null,
      "prizeout_points": null,
      "prizeout_status": null
    },
    {
      "id": "053091d9-84cd-43c7-8c21-ddea5814ba8b",
      "url": "https://localhost/api/v1/reward-items/053091d9-84cd-43c7-8c21-ddea5814ba8b/",
      "client_id": "8PqSNDgIVHnXuJuGte1HdvOjOqhCFE1ZCR3qhqaS",
      "name": "Tarbooza",
      "images": [],
      "attributes": [],
      "prizeout_conversion_rate": null,
      "reward_item_points": null,
      "prizeout_points": null,
      "prizeout_status": null
    }
  ],
  "widget_interactions_url_template": "https://localhost/api/v1/profiles/{profile_id}/widget-interactions/",
  "unclaimed_widget_interactions_url_template": "https://localhost/api/v1/profiles/{profile_id}/unclaimed-widget-interactions/",
  "pubnub_enabled": true
}