{
  "id": "1ddee057-8a3d-44b2-81e7-2b021de488eb",
  "url": "https://cf-blast-qa.livelikecdn.com/api/v1/reaction-spaces/1ddee057-8a3d-44b2-81e7-2b021de488eb/",
  "created_by": "fd836c83-2da0-47ab-ab5a-97266b67db26",
  "client_id": "pnODbVXg0UI80s0l2aH5Y7FOuGbftoAdSNqpdvo6",
  "name": "Android",
  "reaction_pack_ids": [
    "e684c275-17ea-43bf-a22b-9018f873c450"
  ],
  "target_group_id": "testAndroid",
  "reaction_space_channel": "reaction_space.1ddee057-8a3d-44b2-81e7-2b021de488eb",
  "user_reactions_url": "https://cf-blast-qa.livelikecdn.com/api/v1/user-reactions/",
  "user_reaction_detail_url_template": "https://cf-blast-qa.livelikecdn.com/api/v1/user-reactions/{user_reaction_id}/",
  "user_reactions_count_url": "https://cf-blast-qa.livelikecdn.com/api/v1/user-reactions-count/"
}